[
  {
    "op": "core/column-move",
    "columnName": "date",
    "index": 3,
    "description": "Move column date to position 3"
  },
  {
    "op": "core/row-reorder",
    "mode": "row-based",
    "sorting": {
      "criteria": [
        {
          "valueType": "string",
          "column": "cote",
          "blankPosition": 2,
          "errorPosition": 1,
          "reverse": false,
          "caseSensitive": false
        }
      ]
    },
    "description": "Reorder rows"
  }
]