[
  {
    "op": "core/column-move",
    "columnName": "date",
    "index": 3,
    "description": "Move column date to position 3"
  },
  {
    "op": "core/row-reorder",
    "mode": "row-based",
    "sorting": {
      "criteria": [
        {
          "valueType": "string",
          "column": "cote",
          "blankPosition": 2,
          "errorPosition": 1,
          "reverse": false,
          "caseSensitive": false
        }
      ]
    },
    "description": "Reorder rows"
  },
  {
    "op": "core/mass-edit",
    "engineConfig": {
      "facets": [],
      "mode": "row-based"
    },
    "columnName": "date",
    "expression": "value",
    "edits": [
      {
        "from": [
          ""
        ],
        "fromBlank": true,
        "fromError": false,
        "to": "inconnue"
      }
    ],
    "description": "Mass edit cells in column date"
  },
  {
    "op": "core/text-transform",
    "engineConfig": {
      "facets": [],
      "mode": "row-based"
    },
    "columnName": "date",
    "expression": "value.replace(\"-\",\"/\")",
    "onError": "keep-original",
    "repeat": false,
    "repeatCount": 10,
    "description": "Text transform on cells in column date using expression value.replace(\"-\",\"/\")"
  },
  {
    "op": "core/text-transform",
    "engineConfig": {
      "facets": [],
      "mode": "row-based"
    },
    "columnName": "cote",
    "expression": "value.replace(/lot[1-3]/,\"\")",
    "onError": "keep-original",
    "repeat": false,
    "repeatCount": 10,
    "description": "Text transform on cells in column cote using expression value.replace(/lot[1-3]/,\"\")"
  },
  {
    "op": "core/mass-edit",
    "engineConfig": {
      "facets": [],
      "mode": "row-based"
    },
    "columnName": "langue",
    "expression": "value",
    "edits": [
      {
        "from": [
          "français"
        ],
        "fromBlank": false,
        "fromError": false,
        "to": "fre"
      }
    ],
    "description": "Mass edit cells in column langue"
  },
  {
    "op": "core/mass-edit",
    "engineConfig": {
      "facets": [],
      "mode": "row-based"
    },
    "columnName": "langue",
    "expression": "value",
    "edits": [
      {
        "from": [
          "fre "
        ],
        "fromBlank": false,
        "fromError": false,
        "to": "fre"
      }
    ],
    "description": "Mass edit cells in column langue"
  },
  {
    "op": "core/row-removal",
    "engineConfig": {
      "facets": [
        {
          "type": "range",
          "name": "cote",
          "expression": "value.length()",
          "columnName": "cote",
          "from": 0,
          "to": 17,
          "selectNumeric": true,
          "selectNonNumeric": false,
          "selectBlank": false,
          "selectError": true
        },
        {
          "type": "list",
          "name": "Starred Rows",
          "expression": "row.starred",
          "columnName": "",
          "invert": false,
          "omitBlank": false,
          "omitError": false,
          "selection": [
            {
              "v": {
                "v": true,
                "l": "true"
              }
            }
          ],
          "selectBlank": false,
          "selectError": false
        }
      ],
      "mode": "row-based"
    },
    "description": "Remove rows"
  },
  {
    "op": "core/mass-edit",
    "engineConfig": {
      "facets": [],
      "mode": "row-based"
    },
    "columnName": "auteur",
    "expression": "value",
    "edits": [
      {
        "from": [
          "De La Croix, Camille (1831-1911)",
          "Camille De La Croix (1831-1911)",
          "De La Croix   Camille (1831-1911)",
          "De La Croix Camille (1831-1911)",
          "De La Croix Camille 1831-1911",
          "De La Croîx, Camille (1831-1911)",
          "De la Croix, Camille (1831-1911)"
        ],
        "fromBlank": false,
        "fromError": false,
        "to": "De La Croix, Camille (1831-1911)"
      },
      {
        "from": [
          "Espérandieu, Émile (1857-1939)",
          "Esperandieu, Émile (1857-1939)",
          " Émile Espérandieu (1857-1939)",
          "Espérandieu Émile (1857-1939)",
          "Espérandieu, Emile (1857-1939)"
        ],
        "fromBlank": false,
        "fromError": false,
        "to": "Espérandieu, Émile (1857-1939)"
      }
    ],
    "description": "Mass edit cells in column auteur"
  },
  {
    "op": "core/mass-edit",
    "engineConfig": {
      "facets": [],
      "mode": "row-based"
    },
    "columnName": "auteur",
    "expression": "value",
    "edits": [
      {
        "from": [
          "De La Croix, Camille (1831-1911)",
          "De La Croix, Camille(1831-1911)"
        ],
        "fromBlank": false,
        "fromError": false,
        "to": "De La Croix, Camille (1831-1911)"
      }
    ],
    "description": "Mass edit cells in column auteur"
  },
  {
    "op": "core/mass-edit",
    "engineConfig": {
      "facets": [],
      "mode": "row-based"
    },
    "columnName": "auteur",
    "expression": "value",
    "edits": [
      {
        "from": [
          "De LaCroix (Camille)"
        ],
        "fromBlank": false,
        "fromError": false,
        "to": "De La Croix, Camille (1831-1911)"
      }
    ],
    "description": "Mass edit cells in column auteur"
  },
  {
    "op": "core/mass-edit",
    "engineConfig": {
      "facets": [],
      "mode": "row-based"
    },
    "columnName": "description",
    "expression": "value",
    "edits": [
      {
        "from": [
          "carte postale",
          "Carte postale"
        ],
        "fromBlank": false,
        "fromError": false,
        "to": "carte postale"
      }
    ],
    "description": "Mass edit cells in column description"
  },
  {
    "op": "core/mass-edit",
    "engineConfig": {
      "facets": [],
      "mode": "row-based"
    },
    "columnName": "description",
    "expression": "value",
    "edits": [
      {
        "from": [
          "carte postale",
          "Cartepostale"
        ],
        "fromBlank": false,
        "fromError": false,
        "to": "carte postale"
      }
    ],
    "description": "Mass edit cells in column description"
  },
  {
    "op": "core/mass-edit",
    "engineConfig": {
      "facets": [],
      "mode": "row-based"
    },
    "columnName": "description",
    "expression": "value",
    "edits": [
      {
        "from": [
          "Lettre manuscrite de L. Chérion"
        ],
        "fromBlank": false,
        "fromError": false,
        "to": "Lettre de la main de L. Chérion"
      }
    ],
    "description": "Mass edit cells in column description"
  },
  {
    "op": "core/mass-edit",
    "engineConfig": {
      "facets": [],
      "mode": "row-based"
    },
    "columnName": "destinataire",
    "expression": "value",
    "edits": [
      {
        "from": [
          "Espérandieu, Émile (1857-1939)",
          "Esperandieu, Émile 1857-1939)",
          "Espérandieu Émile (1857-1939)",
          "Espérandieu, Emile (1857-1939)"
        ],
        "fromBlank": false,
        "fromError": false,
        "to": "Espérandieu, Émile (1857-1939)"
      }
    ],
    "description": "Mass edit cells in column destinataire"
  },
  {
    "op": "core/mass-edit",
    "engineConfig": {
      "facets": [],
      "mode": "row-based"
    },
    "columnName": "destinataire",
    "expression": "value",
    "edits": [
      {
        "from": [
          "Esperandieu (Emile)"
        ],
        "fromBlank": false,
        "fromError": false,
        "to": "Espérandieu, Émile (1857-1939)"
      }
    ],
    "description": "Mass edit cells in column destinataire"
  },
  {
    "op": "core/text-transform",
    "engineConfig": {
      "facets": [],
      "mode": "row-based"
    },
    "columnName": "cote",
    "expression": "value.toUppercase()",
    "onError": "keep-original",
    "repeat": false,
    "repeatCount": 10,
    "description": "Text transform on cells in column cote using expression value.toUppercase()"
  },
  {
    "op": "core/text-transform",
    "engineConfig": {
      "facets": [],
      "mode": "row-based"
    },
    "columnName": "fichier et page",
    "expression": "value.trim()",
    "onError": "keep-original",
    "repeat": false,
    "repeatCount": 10,
    "description": "Text transform on cells in column fichier et page using expression value.trim()"
  },
  {
    "op": "core/text-transform",
    "engineConfig": {
      "facets": [],
      "mode": "row-based"
    },
    "columnName": "fichier et page",
    "expression": "value.replace(/[\\p{Zs}\\s]+/,' ')",
    "onError": "keep-original",
    "repeat": false,
    "repeatCount": 10,
    "description": "Text transform on cells in column fichier et page using expression value.replace(/[\\p{Zs}\\s]+/,' ')"
  },
  {
    "op": "core/text-transform",
    "engineConfig": {
      "facets": [],
      "mode": "row-based"
    },
    "columnName": "nbpages",
    "expression": "value.toNumber()",
    "onError": "keep-original",
    "repeat": false,
    "repeatCount": 10,
    "description": "Text transform on cells in column nbpages using expression value.toNumber()"
  },
  {
    "op": "core/text-transform",
    "engineConfig": {
      "facets": [],
      "mode": "row-based"
    },
    "columnName": "nbpages",
    "expression": "value.replace(/[^0-9]/,\"\")",
    "onError": "keep-original",
    "repeat": false,
    "repeatCount": 10,
    "description": "Text transform on cells in column nbpages using expression value.replace(/[^0-9]/,\"\")"
  },
  {
    "op": "core/text-transform",
    "engineConfig": {
      "facets": [],
      "mode": "row-based"
    },
    "columnName": "nbpages",
    "expression": "value.toNumber()",
    "onError": "keep-original",
    "repeat": false,
    "repeatCount": 10,
    "description": "Text transform on cells in column nbpages using expression value.toNumber()"
  }
]